^C:\USERS\TECH\SOURCE\REPOS\GOLDENEYE\SOURCE\SOURCE.CPP
C:\USERS\TECH\SOURCE\REPOS\GOLDENEYE\TEMP\WIN32\VC141.PDB
C:\USERS\TECH\SOURCE\REPOS\GOLDENEYE\TEMP\WIN32\VC141.IDB
C:\USERS\TECH\SOURCE\REPOS\GOLDENEYE\TEMP\WIN32\SOURCE.OBJ
